{
 "accept_payment": 0,
 "allow_comments": 0,
 "allow_delete": 0,
 "allow_edit": 0,
 "allow_incomplete": 0,
 "allow_multiple": 0,
 "allow_print": 0,
 "amount": 0.0,
 "amount_based_on_field": 0,
 "button_label": "Save",
 "client_script": "frappe.web_form.on('full_name', (field, value) => {\r\n    console.log(frappe.session.user)\r\n    frappe.web_form.set_value('user_id', frappe.session.user);\r\n});",
 "creation": "2020-11-27 13:27:28.965062",
 "currency": "INR",
 "doc_type": "Dealer Registration",
 "docstatus": 0,
 "doctype": "Web Form",
 "idx": 0,
 "is_standard": 1,
 "login_required": 0,
 "max_attachment_size": 0,
 "modified": "2021-01-11 18:17:11.014490",
 "modified_by": "sagar@trueview.co.in",
 "module": "Replacement Management",
 "name": "dealer-registration",
 "owner": "Administrator",
 "payment_button_label": "Buy Now",
 "published": 1,
 "route": "dealer-registration",
 "route_to_success_link": 1,
 "show_attachments": 0,
 "show_in_grid": 0,
 "show_sidebar": 0,
 "sidebar_items": [],
 "success_url": "/me",
 "title": "Dealer Registration",
 "web_form_fields": [
  {
   "allow_read_on_all_link_options": 0,
   "fieldname": "companyfirm_name",
   "fieldtype": "Data",
   "hidden": 0,
   "label": "Company/Firm Name",
   "max_length": 0,
   "max_value": 0,
   "read_only": 0,
   "reqd": 1,
   "show_in_filter": 0
  },
  {
   "allow_read_on_all_link_options": 0,
   "fieldname": "full_name",
   "fieldtype": "Data",
   "hidden": 0,
   "label": "Full Name",
   "max_length": 0,
   "max_value": 0,
   "read_only": 0,
   "reqd": 1,
   "show_in_filter": 0
  },
  {
   "allow_read_on_all_link_options": 0,
   "fieldname": "email",
   "fieldtype": "Data",
   "hidden": 0,
   "label": "Email",
   "max_length": 0,
   "max_value": 0,
   "options": "Email",
   "read_only": 0,
   "reqd": 1,
   "show_in_filter": 0
  },
  {
   "allow_read_on_all_link_options": 0,
   "fieldname": "mobile_number",
   "fieldtype": "Data",
   "hidden": 0,
   "label": "Mobile Number",
   "max_length": 0,
   "max_value": 0,
   "read_only": 0,
   "reqd": 1,
   "show_in_filter": 0
  },
  {
   "allow_read_on_all_link_options": 0,
   "fieldname": "address",
   "fieldtype": "Data",
   "hidden": 0,
   "label": "Address",
   "max_length": 0,
   "max_value": 0,
   "read_only": 0,
   "reqd": 1,
   "show_in_filter": 0
  },
  {
   "allow_read_on_all_link_options": 0,
   "fieldname": "city",
   "fieldtype": "Data",
   "hidden": 0,
   "label": "City",
   "max_length": 0,
   "max_value": 0,
   "read_only": 0,
   "reqd": 1,
   "show_in_filter": 0
  },
  {
   "allow_read_on_all_link_options": 0,
   "fieldname": "column_break_5",
   "fieldtype": "Column Break",
   "hidden": 0,
   "max_length": 0,
   "max_value": 0,
   "read_only": 0,
   "reqd": 0,
   "show_in_filter": 0
  },
  {
   "allow_read_on_all_link_options": 0,
   "fieldname": "state",
   "fieldtype": "Data",
   "hidden": 0,
   "label": "State",
   "max_length": 0,
   "max_value": 0,
   "read_only": 0,
   "reqd": 1,
   "show_in_filter": 0
  },
  {
   "allow_read_on_all_link_options": 0,
   "fieldname": "gstn",
   "fieldtype": "Data",
   "hidden": 0,
   "label": "GSTN",
   "max_length": 0,
   "max_value": 0,
   "read_only": 0,
   "reqd": 1,
   "show_in_filter": 0
  },
  {
   "allow_read_on_all_link_options": 0,
   "fieldname": "pincode",
   "fieldtype": "Data",
   "hidden": 0,
   "label": "Pincode",
   "max_length": 0,
   "max_value": 0,
   "read_only": 0,
   "reqd": 1,
   "show_in_filter": 0
  },
  {
   "allow_read_on_all_link_options": 0,
   "fieldname": "user_id",
   "fieldtype": "Data",
   "hidden": 1,
   "label": "User ID",
   "max_length": 0,
   "max_value": 0,
   "options": "User",
   "read_only": 1,
   "reqd": 0,
   "show_in_filter": 0
  }
 ]
}