{
 "category": "Modules",
 "charts": [],
 "creation": "2021-07-05 17:44:57.156526",
 "developer_mode_only": 0,
 "disable_user_customization": 1,
 "docstatus": 0,
 "doctype": "Workspace",
 "extends_another_page": 0,
 "hide_custom": 0,
 "icon": "sell",
 "idx": 0,
 "is_default": 0,
 "is_standard": 1,
 "label": "Dealer",
 "links": [],
 "modified": "2021-07-07 14:17:02.524423",
 "modified_by": "chetan@trueview.co.in",
 "module": "Replacement Management",
 "name": "Dealer",
 "owner": "chetan@trueview.co.in",
 "pin_to_bottom": 0,
 "pin_to_top": 0,
 "shortcuts": [
  {
   "doc_view": "",
   "label": "Service",
   "link_to": "Regular Replacement Request",
   "type": "DocType"
  },
  {
   "doc_view": "",
   "label": "RMA Master",
   "link_to": "RMA Master",
   "type": "DocType"
  },
  {
   "doc_view": "",
   "label": "DOA",
   "link_to": "DOA Request",
   "type": "DocType"
  },
  {
   "doc_view": "",
   "label": "Piece to Piece",
   "link_to": "P2P Request",
   "type": "DocType"
  }
 ],
 "shortcuts_label": "Service module"
}